{
    "apps": [
        {
            "name": "herbalTech_1",
            "script": "app.js",
            "watch": [
                "app",
                "config",
                "assets",
                "tasks"
            ],
            "args": "--port 8081 --prod",
            "exec_mode": "fork",
        },
        {
            "name": "herbalTech_2",
            "script": "app.js",
            "watch": [
                "app",
                "config",
                "assets",
                "tasks"
            ],
            "args": "--port 8082 --prod",
            "exec_mode": "fork"
        },
        {
            "name": "herbalTech_3",
            "script": "app.js",
            "watch": [
                "app",
                "config",
                "assets",
                "tasks"
            ],
            "args": "--port 8082 --prod",
            "exec_mode": "fork"
        }
    ]
}
